Week 7 - Text analysis (2)
…
---

The [`tidytext::tidy()`](https://juliasilge.github.io/tidytext/reference/stm_tidiers.html) function, taken from the tidytext package, .highlight[converts the Document Term Matrix into a dataframe]. The beta option for matrix shows the data as per-term-per-topic. So we will get terms for topics. 

```r
# Convert a LDA object into a dataframe.
comment_topics <- tidy(comments_lda, matrix = "beta")

# Explore the result.
comment_topics
```

```
## # A tibble: 18,685 × 3
##    topic term          beta
##    <int> <chr>        <dbl>
##  1     1 lithium  2.69e-214
##  2     2 lithium  1.07e-  2
##  3     3 lithium  6.52e- 11
##  4     4 lithium  5.90e-  3
##  5     5 lithium  2.36e-  2
##  6     1 americas 8.75e-221
##  7     2 americas 8.12e-  3
##  8     3 americas 1.34e-219
##  9     4 americas 4.69e-  4
## 10     5 americas 3.90e-  3
## # … with 18,675 more rows
```
…
We can provide visualisations of the topics that are generated by the model. 

```r
# Create top 5 words by topic.
top_terms <- comment_topics %>%
  group_by(topic) %>%
  top_n(5, beta) %>%
  # ungroup() %>%
  arrange(topic, -beta)

top_terms
```

```
## # A tibble: 25 × 3
## # Groups:   topic [5]
##    topic term       beta
##    <int> <chr>     <dbl>
##  1     1 minister 0.0141
##  2     1 day      0.0140
##  3     1 gt       0.0111
##  4     1 climate  0.0109
##  5     1 days     0.0106
##  6     2 job      0.0228
##  7     2 people   0.0166
##  8     2 day      0.0131
##  9     2 hours    0.0131
## 10     2 days     0.0126
## # … with 15 more rows
```
…
We will now apply the LDA model to the comments and classify the topics by comment so that we can see how they are shared across the subrreddits. We use gamma option in matrix to identify the topic per document probabilities. Keep in mind that the topics are statistical probabilities rather than a human constructed topic. 

```r
# Convert to data frame.
comments_gamma <- tidy(comments_lda, 
*                      matrix = "gamma")
# Separate it
comments_gamma <- comments_gamma %>%
  separate(document, c("subreddit", "id"), sep = "_", convert = TRUE)

comments_gamma
```

```
## # A tibble: 2,235 × 4
##    subreddit          id topic     gamma
##    <chr>           <int> <int>     <dbl>
##  1 MillennialBets     93     1 0.000118 
##  2 wallstreetbets    360     1 0.000235 
##  3 wallstreetbets    387     1 0.000125 
##  4 climatedisalarm    54     1 0.0000996
##  5 Scotland          218     1 0.998    
##  6 Scotland          225     1 0.000204 
##  7 wallstreetbets    359     1 0.999    
##  8 climate            15     1 0.000202 
##  9 wallstreetbets    401     1 0.000283 
## 10 climate            28     1 0.999    
## # … with 2,225 more rows
```
…
```r
comment_classifications <- comments_gamma %>%
  group_by(subreddit, id) %>%
  slice_max(gamma) %>%
  ungroup()
```

---

```r
comment_classifications
```

```
## # A tibble: 447 × 4
##    subreddit               id topic gamma
##    <chr>                <int> <int> <dbl>
##  1 ClassPoliticsTwitter     1     5 0.996
##  2 climate                  2     4 0.812
##  3 climate                  3     4 0.983
##  4 climate                  4     1 0.998
##  5 climate                  5     4 0.998
##  6 climate                  6     4 0.995
##  7 climate                  7     4 0.997
##  8 climate                  8     4 0.695
##  9 climate                  9     4 0.993
## 10 climate                 10     4 0.957
## # … with 437 more rows
```
…
# Let's filter the subreddit classifications where it does not match consensus
# We'll join the subreddit and classifications together and filter where
# the subreddit and predicted subreddit do not match. 
comment_classifications %>%
  inner_join(subreddit_topics, by = "topic") %>%
  filter(subreddit != consensus)
```

```
## # A tibble: 1,646 × 5
##    subreddit               id topic gamma consensus          
##    <chr>                <int> <int> <dbl> <chr>              
##  1 ClassPoliticsTwitter     1     5 0.996 demsocialists      
##  2 ClassPoliticsTwitter     1     5 0.996 environment        
##  3 ClassPoliticsTwitter     1     5 0.996 PLUGgreenhydrogen  
##  4 ClassPoliticsTwitter     1     5 0.996 plugpowerstock     
##  5 ClassPoliticsTwitter     1     5 0.996 wallstreetbets     
##  6 climate                  2     4 0.812 climatepolicy      
##  7 climate                  2     4 0.812 collapse           
##  8 climate                  2     4 0.812 LateStageCapitalism
##  9 climate                  2     4 0.812 PLUGgreenhydrogen  
## 10 climate                  2     4 0.812 thatHappened       
## # … with 1,636 more rows
```
…
---

The top of the assignments is shown to help you understand what the data is. You can see the two topic assignments for the same word, which is the assignment by the topic model. It is not the easiest form to read, so we will visualise it. 

If you want to explore particualr topic further, a simple tool has been written below for you. We can filter the data by a topic to identify the words and what they might come from. You can alter id == ??? to term==??? to identify terms, if you want to filter it further. 

```r
docs <- assignments %>%
  filter(id==262) %>%
  arrange(desc(count))
docs
```

```
## # A tibble: 215 × 6
##    subreddit    id term  count .topic consensus        
##    <chr>     <int> <chr> <dbl>  <dbl> <chr>            
##  1 Scotland    262 gt        3      3 climatedisalarm  
##  2 Scotland    262 gt        3      3 electricvehicles 
##  3 Scotland    262 gt        3      3 nextfuckinglevel 
##  4 Scotland    262 gt        3      3 PLUGgreenhydrogen
##  5 Scotland    262 gt        3      3 thatHappened     
##  6 Scotland    262 life      3      3 climatedisalarm  
##  7 Scotland    262 life      3      3 electricvehicles 
##  8 Scotland    262 life      3      3 nextfuckinglevel 
##  9 Scotland    262 life      3      3 PLUGgreenhydrogen
## 10 Scotland    262 life      3      3 thatHappened     
## # … with 205 more rows
```
…
